<?xml version="1.0" encoding="UTF-8" standalone="no"?>
<svg width="10px" height="14px" viewBox="0 0 10 14" version="1.1" xmlns="http://www.w3.org/2000/svg" xmlns:xlink="http://www.w3.org/1999/xlink">
    <!-- Generator: Sketch 47.1 (45422) - http://www.bohemiancoding.com/sketch -->
    <title>ion-android-pin - Ionicons</title>
    <desc>Created with Sketch.</desc>
    <defs></defs>
    <g id="Design" stroke="none" stroke-width="1" fill="none" fill-rule="evenodd">
        <g id="Search-Result" transform="translate(-76.000000, -544.000000)" fill="#A8A8A8">
            <g id="card-1" transform="translate(76.000000, 276.000000)">
                <g id="Group-3" transform="translate(0.000000, 266.000000)">
                    <g id="Group-7-Copy">
                        <g id="Group-11">
                            <path d="M5,2 C6.37500688,2 7.55207844,2.47916187 8.53125,3.4375 C9.51042156,4.39583813 10,5.55207656 10,6.90625 C10,7.98958875 9.5833375,9.29165906 8.75,10.8125 C7.9166625,12.3333409 7.0833375,13.5833284 6.25,14.5625 L5,16 C4.85416594,15.8541659 4.67187609,15.651043 4.453125,15.390625 C4.23437391,15.130207 3.83854453,14.6250038 3.265625,13.875 C2.69270547,13.1249963 2.18750219,12.3958369 1.75,11.6875 C1.31249781,10.9791631 0.911460156,10.1770878 0.546875,9.28125 C0.182289844,8.38541219 0,7.59375344 0,6.90625 C0,5.55207656 0.489578438,4.39583813 1.46875,3.4375 C2.44792156,2.47916187 3.62499313,2 5,2 Z M5,8.65625 C5.5000025,8.65625 5.92187328,8.48437672 6.265625,8.140625 C6.60937672,7.79687328 6.78125,7.38541906 6.78125,6.90625 C6.78125,6.42708094 6.60937672,6.01562672 6.265625,5.671875 C5.92187328,5.32812328 5.5000025,5.15625 5,5.15625 C4.4999975,5.15625 4.07812672,5.32812328 3.734375,5.671875 C3.39062328,6.01562672 3.21875,6.42708094 3.21875,6.90625 C3.21875,7.38541906 3.39062328,7.79687328 3.734375,8.140625 C4.07812672,8.48437672 4.4999975,8.65625 5,8.65625 Z" id="ion-android-pin---Ionicons"></path>
                        </g>
                    </g>
                </g>
            </g>
        </g>
    </g>
</svg>